{
  "npmScope": "hack4rice-starter",
  "implicitDependencies": {
    "angular.json": "*",
    "package.json": "*",
    "tsconfig.json": "*",
    "tslint.json": "*",
    "nx.json": "*"
  },
  "projects": {
    "hack4rice-default-e2e": {
      "tags": []
    },
    "hack4rice-default": {
      "tags": []
    },
    "hack4rice-default-backend": {
      "tags": []
    }
  }
}
